Miscellaneous Functions • relper
…
The goal of calc_acf is to compute the auto-correlation function, given by:

$$\frac{\sum_\limits{t = k+1}^{n}(x_t - \bar{x})(x_{t-k} - \bar{x})}{\sum_\limits{t = 1}^{n} (x_t - \bar{x})^2 },$$ where:

xt is a time series of length n;

xt − k is a shifted time series by k units in time;

x̄ is the average of the time series.

x <- rnorm(100)

calc_acf(x)
#> # A tibble: 21 x 2
#>         acf   lag
#>       <dbl> <dbl>
#>  1  1           0
#>  2  0.159       1
#>  3 -0.0818      2
#>  4 -0.163       3
#>  5 -0.162       4
#>  6 -0.00682     5
#>  7 -0.0441      6
#>  8 -0.0992      7
#>  9  0.0595      8
#> 10  0.117       9
#> # ... with 11 more rows

If you pass a second vector in the argument y the cross-correlation will be computed instead:

$$\frac{n \left( \sum_\limits{t = 1}^{n}x_ty_t \right) - \left[\left(\sum_\limits{t = 1}^{n}x_t \right) \left(\sum_\limits{t = 1}^{n}y_t\right) \right]}{\sqrt{\left[n \left( \sum_\limits{t = 1}^{n}x_t^2 \right) - \left( \sum_\limits{t = 1}^{n}x_t \right)^2\right]\left[n \left( \sum_\limits{t = 1}^{n}y_t^2 \right) - \left( \sum_\limits{t = 1}^{n}y_t \right)^2\right]}},$$ where:

xt is a time series of length n;

yt is a time series of length n.

y <- rexp(100)

calc_acf(x,y)
#> # A tibble: 33 x 2
#>         ccf   lag
#>       <dbl> <dbl>
#>  1  0.00782   -16
#>  2  0.133     -15
#>  3 -0.0314    -14
#>  4 -0.122     -13
#>  5 -0.233     -12
#>  6 -0.103     -11
#>  7 -0.0513    -10
#>  8 -0.0112     -9
#>  9  0.0629     -8
#> 10  0.0210     -7
#> # ... with 23 more rows
…
