…
## “Calc” functions

This functions will compute a certain value.

### calc_acf

The goal of *calc_acf* is to computes the auto-correlation.

``` r
x <- rnorm(100)

calc_acf(x)
#> # A tibble: 21 x 2
#>         acf   lag
#>       <dbl> <dbl>
#>  1  1           0
#>  2  0.159       1
#>  3 -0.0818      2
#>  4 -0.163       3
#>  5 -0.162       4
#>  6 -0.00682     5
#>  7 -0.0441      6
#>  8 -0.0992      7
#>  9  0.0595      8
#> 10  0.117       9
#> # ... with 11 more rows
```

If you pass a second vector the cross-correlation will be computed.

``` r
y <- rexp(100)

calc_acf(x,y)
#> # A tibble: 33 x 2
#>         ccf   lag
#>       <dbl> <dbl>
#>  1  0.00782   -16
#>  2  0.133     -15
#>  3 -0.0314    -14
#>  4 -0.122     -13
#>  5 -0.233     -12
#>  6 -0.103     -11
#>  7 -0.0513    -10
#>  8 -0.0112     -9
#>  9  0.0629     -8
#> 10  0.0210     -7
#> # ... with 23 more rows
```
…
